<?xml version="1.0" encoding="UTF-8" standalone="no"?>
<!-- Created with Inkscape (http://www.inkscape.org/) -->

<svg
   xmlns:dc="http://purl.org/dc/elements/1.1/"
   xmlns:cc="http://creativecommons.org/ns#"
   xmlns:rdf="http://www.w3.org/1999/02/22-rdf-syntax-ns#"
   xmlns:svg="http://www.w3.org/2000/svg"
   xmlns="http://www.w3.org/2000/svg"
   xmlns:sodipodi="http://sodipodi.sourceforge.net/DTD/sodipodi-0.dtd"
   xmlns:inkscape="http://www.inkscape.org/namespaces/inkscape"
   width="23.661901mm"
   height="13.96664mm"
   viewBox="0 0 23.661901 13.96664"
   version="1.1"
   id="svg4611"
   inkscape:version="0.92.3 (2405546, 2018-03-11)"
   sodipodi:docname="card.svg">
  <defs
     id="defs4605">
    <clipPath
       id="clip-path">
      <path
         transform="translate(-1893.085,-1198.302)"
         d="m 1906.347,1211.322 c 0,-0.086 -0.119,-0.112 -0.119,-0.112 a 6.377,6.377 0 0 1 -3.142,-1.779 18.88,18.88 0 0 1 -2.967,-3.785 c -0.135,-0.284 0.056,-0.315 0.056,-0.315 v 0 a 3.96,3.96 0 0 0 2.73,-3.5 c 0.013,-2.689 -2.774,-3.494 -5.285,-3.5 -0.949,-0.01 -1.266,0.064 -2.255,0.06 -1.149,-0.01 -1.841,-0.08 -2.019,-0.08 a 0.261,0.261 0 0 0 -0.26,0.269 c 0,0.65 1.623,-0.444 1.613,1.72 l -0.046,8.644 c -0.01,2 -1.548,1.438 -1.552,1.922 0,0.161 0.2,0.222 0.316,0.224 0.575,0 1.226,-0.071 2.159,-0.068 1.17,0 1.464,0.083 2.138,0.086 0.492,0 0.574,-0.091 0.574,-0.215 0,-0.615 -2.078,0.312 -2.064,-2.282 l 0.046,-9.116 c 0,-0.539 0.436,-0.536 1.069,-0.536 2.278,0.01 4.073,1.175 4.1,3.356 a 2.967,2.967 0 0 1 -3.223,2.874 3.989,3.989 0 0 1 -0.716,-0.041 c -0.094,0 -0.2,0.035 -0.2,0.158 0,0.17 0.146,0.254 0.315,0.3 a 2.136,2.136 0 0 1 1.258,0.914 v 0 c 1.34,2.019 2.842,5.043 6.3,5.058 1.292,0 1.163,-0.135 1.166,-0.244"
         data-name="Trazado 50"
         id="Trazado_50"
         inkscape:connector-curvature="0"
         style="clip-rule:evenodd;fill:none" />
    </clipPath>
    <clipPath
       id="clip-path-2">
      <rect
         height="53.057999"
         width="61.901001"
         data-name="Rectángulo 246"
         id="Rectángulo_246"
         x="0"
         y="0"
         style="fill:none" />
    </clipPath>
    <clipPath
       id="clip-path-3">
      <rect
         height="4.421"
         width="4.4959998"
         data-name="Rectángulo 249"
         id="Rectángulo_249"
         x="0"
         y="0"
         style="fill:none" />
    </clipPath>
    <clipPath
       id="clip-path-4">
      <rect
         height="53.057999"
         width="62.937"
         data-name="Rectángulo 248"
         id="Rectángulo_248"
         x="0"
         y="0"
         style="fill:none" />
    </clipPath>
    <clipPath
       id="clip-path-7">
      <path
         transform="translate(-2002.751,-1180.217)"
         d="m 2007.246,1181.832 a 1.722,1.722 0 0 0 -1.694,-1.616 h -2.8 v 4.422 h 4.5 z"
         data-name="Trazado 51"
         id="Trazado_51"
         inkscape:connector-curvature="0"
         style="clip-rule:evenodd;fill:none" />
    </clipPath>
    <clipPath
       id="clip-path-9">
      <path
         transform="translate(-2002.751,-1252.219)"
         d="m 2007.246,1254.637 v -2.418 h -4.5 v 4.422 h 2.806 a 1.8,1.8 0 0 0 1.689,-2"
         data-name="Trazado 52"
         id="Trazado_52"
         inkscape:connector-curvature="0"
         style="clip-rule:evenodd;fill:none" />
    </clipPath>
  </defs>
  <sodipodi:namedview
     id="base"
     pagecolor="#ffffff"
     bordercolor="#666666"
     borderopacity="1.0"
     inkscape:pageopacity="0.0"
     inkscape:pageshadow="2"
     inkscape:zoom="5.6"
     inkscape:cx="80.295468"
     inkscape:cy="21.060778"
     inkscape:document-units="mm"
     inkscape:current-layer="layer2"
     showgrid="false"
     showguides="true"
     inkscape:guide-bbox="true"
     inkscape:window-width="1299"
     inkscape:window-height="713"
     inkscape:window-x="67"
     inkscape:window-y="27"
     inkscape:window-maximized="1" />
  <metadata
     id="metadata4608">
    <rdf:RDF>
      <cc:Work
         rdf:about="">
        <dc:format>image/svg+xml</dc:format>
        <dc:type
           rdf:resource="http://purl.org/dc/dcmitype/StillImage" />
        <dc:title></dc:title>
      </cc:Work>
    </rdf:RDF>
  </metadata>
  <g
     inkscape:groupmode="layer"
     id="layer2"
     inkscape:label="Layer 2"
     transform="translate(-289.52939,-214.84666)">
    <path
       style="fill:#ffffff;fill-opacity:1;stroke:#000000;stroke-width:0.26499999;stroke-linecap:butt;stroke-linejoin:miter;stroke-miterlimit:4;stroke-dasharray:none;stroke-opacity:1"
       d="m 289.71873,221.68825 6.99257,-6.70909 h 16.34749 V 228.6808 H 296.7113 Z"
       id="path4714"
       inkscape:connector-curvature="0" />
  </g>
  <g
     inkscape:label="Layer 1"
     inkscape:groupmode="layer"
     id="layer1"
     transform="translate(-289.52939,-214.84666)">
    <g
       id="g4696"
       transform="matrix(0.26458333,0,0,0.26458333,299.08058,216.83691)">
      <rect
         transform="translate(0,0.085)"
         rx="2"
         height="21.964001"
         width="35.625999"
         data-name="Rectángulo 244"
         id="Rectángulo_244"
         x="0"
         y="0"
         style="fill:#575756" />
      <g
         transform="translate(4.194,4.442)"
         data-name="Grupo 49"
         id="Grupo_49">
        <g
           clip-path="url(#clip-path)"
           data-name="Grupo 48"
           id="Grupo_48">
          <g
             transform="translate(-13.264,-30.95)"
             data-name="Grupo 47"
             id="Grupo_47">
            <g
               clip-path="url(#clip-path-2)"
               data-name="Grupo 46"
               id="Grupo_46">
              <rect
                 transform="translate(-8.843,8.843)"
                 height="57.479"
                 width="57.479"
                 data-name="Rectángulo 245"
                 id="Rectángulo_245"
                 x="0"
                 y="0"
                 style="fill:#ffffff" />
            </g>
          </g>
        </g>
      </g>
      <g
         transform="translate(31.131,8.814)"
         data-name="Grupo 53"
         id="Grupo_53">
        <g
           clip-path="url(#clip-path-3)"
           data-name="Grupo 52"
           id="Grupo_52">
          <g
             transform="translate(-40.46,-39.793)"
             data-name="Grupo 51"
             id="Grupo_51">
            <g
               clip-path="url(#clip-path-4)"
               data-name="Grupo 50"
               id="Grupo_50">
              <rect
                 transform="translate(17.982,17.686)"
                 height="48.636002"
                 width="49.451"
                 data-name="Rectángulo 247"
                 id="Rectángulo_247"
                 x="0"
                 y="0"
                 style="fill:#dbdcde" />
            </g>
          </g>
        </g>
      </g>
      <g
         transform="translate(31.131,4.407)"
         data-name="Grupo 57"
         id="Grupo_57">
        <g
           clip-path="url(#clip-path-3)"
           data-name="Grupo 56"
           id="Grupo_56">
          <g
             transform="translate(-40.46,-35.372)"
             data-name="Grupo 55"
             id="Grupo_55">
            <g
               clip-path="url(#clip-path-4)"
               data-name="Grupo 54"
               id="Grupo_54">
              <rect
                 transform="translate(17.982,13.264)"
                 height="48.636002"
                 width="49.451"
                 data-name="Rectángulo 250"
                 id="Rectángulo_250"
                 x="0"
                 y="0"
                 style="fill:#ffd300" />
            </g>
          </g>
        </g>
      </g>
      <g
         transform="translate(31.131)"
         data-name="Grupo 61"
         id="Grupo_61">
        <g
           clip-path="url(#clip-path-7)"
           data-name="Grupo 60"
           id="Grupo_60">
          <g
             transform="translate(-40.46,-30.95)"
             data-name="Grupo 59"
             id="Grupo_59">
            <g
               clip-path="url(#clip-path-4)"
               data-name="Grupo 58"
               id="Grupo_58">
              <rect
                 transform="translate(17.982,8.843)"
                 height="48.636002"
                 width="49.451"
                 data-name="Rectángulo 253"
                 id="Rectángulo_253"
                 x="0"
                 y="0"
                 style="fill:#771469" />
            </g>
          </g>
        </g>
      </g>
      <g
         transform="translate(31.131,17.628)"
         data-name="Grupo 65"
         id="Grupo_65">
        <g
           clip-path="url(#clip-path-9)"
           data-name="Grupo 64"
           id="Grupo_64">
          <g
             transform="translate(-40.46,-48.636)"
             data-name="Grupo 63"
             id="Grupo_63">
            <g
               clip-path="url(#clip-path-4)"
               data-name="Grupo 62"
               id="Grupo_62">
              <rect
                 transform="translate(17.982,26.529)"
                 height="48.636002"
                 width="49.451"
                 data-name="Rectángulo 255"
                 id="Rectángulo_255"
                 x="0"
                 y="0"
                 style="fill:#dd052b" />
            </g>
          </g>
        </g>
      </g>
    </g>
    <text
       xml:space="preserve"
       style="font-style:normal;font-variant:normal;font-weight:normal;font-stretch:normal;font-size:19.7555542px;line-height:1.25;font-family:'Montserrat ExtraBold';-inkscape-font-specification:'Montserrat ExtraBold, ';letter-spacing:0px;word-spacing:0px;fill:#000000;fill-opacity:1;stroke:none;stroke-width:0.26458332"
       x="296.80585"
       y="225.60974"
       id="text4700"><tspan
         sodipodi:role="line"
         id="tspan4698"
         x="296.80585"
         y="225.60974"
         style="font-size:2.11666656px;stroke-width:0.26458332">Tarjeta Ripley</tspan></text>
  </g>
</svg>
